**********************************************************************

* GitLab repo:
* Charts repo:

**********************************************************************
Deployment done!

Your app can be accessed via:

{{- if .Values.hello.enabled }}
URL:  https://{{ tpl .Values.hello.route.host $ }}/
{{- end }}


